{
  "project_info": {
    "project_number": "661986152352",
    "project_id": "react-native-igclone22",
    "storage_bucket": "react-native-igclone22.appspot.com"
  },
  "client": [
    {
      "client_info": {
        "mobilesdk_app_id": "1:661986152352:android:4048605492a9859b775ec5",
        "android_client_info": {
          "package_name": "com.igclone"
        }
      },
      "oauth_client": [
        {
          "client_id": "661986152352-uhjfai9b35lop6m2a2o86e209h1grr79.apps.googleusercontent.com",
          "client_type": 3
        }
      ],
      "api_key": [
        {
          "current_key": "AIzaSyDgFwBdsbB1CWYtsGWNAlofj3jwmg3LOfA"
        }
      ],
      "services": {
        "appinvite_service": {
          "other_platform_oauth_client": [
            {
              "client_id": "661986152352-uhjfai9b35lop6m2a2o86e209h1grr79.apps.googleusercontent.com",
              "client_type": 3
            }
          ]
        }
      }
    }
  ],
  "configuration_version": "1"
}